[api-updater (non-obsolete-error-filter)] 23/06/2021 4:14:03 PM : Starting C:/Program Files/Unity/Hub/Editor/2020.2.2f1/Editor/Data/Tools/ScriptUpdater/APIUpdater.NonObsoleteApiUpdaterDetector.exe
[api-updater (non-obsolete-error-filter)] 
----------------------------------
jit/startup time      : 885.6044ms
moved types parse time: 69ms
candidates parse time : 4ms
C# parse time         : 440ms
candidates check time : 36ms
console write time    : 0ms

[api-updater (non-obsolete-error-filter)] 23/06/2021 4:14:25 PM : Starting C:/Program Files/Unity/Hub/Editor/2020.2.2f1/Editor/Data/Tools/ScriptUpdater/APIUpdater.NonObsoleteApiUpdaterDetector.exe
[api-updater (non-obsolete-error-filter)] 
----------------------------------
jit/startup time      : 121.6783ms
moved types parse time: 66ms
candidates parse time : 5ms
C# parse time         : 185ms
candidates check time : 30ms
console write time    : 0ms

